%YAML 1.1
%TAG !u! tag:unity3d.com,2011:
--- !u!1 &6169699378646413424
GameObject:
  m_ObjectHideFlags: 0
  m_CorrespondingSourceObject: {fileID: 0}
  m_PrefabInstance: {fileID: 0}
  m_PrefabAsset: {fileID: 0}
  serializedVersion: 6
  m_Component:
  - component: {fileID: 4581645979111216662}
  - component: {fileID: 7156680534667851373}
  m_Layer: 0
  m_Name: floor
  m_TagString: Untagged
  m_Icon: {fileID: 0}
  m_NavMeshLayer: 0
  m_StaticEditorFlags: 0
  m_IsActive: 1
--- !u!4 &4581645979111216662
Transform:
  m_ObjectHideFlags: 0
  m_CorrespondingSourceObject: {fileID: 0}
  m_PrefabInstance: {fileID: 0}
  m_PrefabAsset: {fileID: 0}
  m_GameObject: {fileID: 6169699378646413424}
  serializedVersion: 2
  m_LocalRotation: {x: 0, y: 0, z: 0, w: 1}
  m_LocalPosition: {x: 0, y: 0, z: 0}
  m_LocalScale: {x: 1, y: 1, z: 1}
  m_ConstrainProportionsScale: 0
  m_Children:
  - {fileID: 5878996698018940696}
  m_Father: {fileID: 0}
  m_LocalEulerAnglesHint: {x: 0, y: 0, z: 0}
--- !u!156049354 &7156680534667851373
Grid:
  m_ObjectHideFlags: 0
  m_CorrespondingSourceObject: {fileID: 0}
  m_PrefabInstance: {fileID: 0}
  m_PrefabAsset: {fileID: 0}
  m_GameObject: {fileID: 6169699378646413424}
  m_Enabled: 1
  m_CellSize: {x: 1, y: 1, z: 0}
  m_CellGap: {x: 0, y: 0, z: 0}
  m_CellLayout: 0
  m_CellSwizzle: 0
--- !u!1 &6512602668835385635
GameObject:
  m_ObjectHideFlags: 0
  m_CorrespondingSourceObject: {fileID: 0}
  m_PrefabInstance: {fileID: 0}
  m_PrefabAsset: {fileID: 0}
  serializedVersion: 6
  m_Component:
  - component: {fileID: 5878996698018940696}
  - component: {fileID: 7809730718143848627}
  - component: {fileID: 4376834232036447939}
  m_Layer: 0
  m_Name: Layer1
  m_TagString: Untagged
  m_Icon: {fileID: 0}
  m_NavMeshLayer: 0
  m_StaticEditorFlags: 0
  m_IsActive: 1
--- !u!4 &5878996698018940696
Transform:
  m_ObjectHideFlags: 0
  m_CorrespondingSourceObject: {fileID: 0}
  m_PrefabInstance: {fileID: 0}
  m_PrefabAsset: {fileID: 0}
  m_GameObject: {fileID: 6512602668835385635}
  serializedVersion: 2
  m_LocalRotation: {x: -0, y: -0, z: -0, w: 1}
  m_LocalPosition: {x: 0, y: 0, z: 0}
  m_LocalScale: {x: 1, y: 1, z: 1}
  m_ConstrainProportionsScale: 0
  m_Children: []
  m_Father: {fileID: 4581645979111216662}
  m_LocalEulerAnglesHint: {x: 0, y: 0, z: 0}
--- !u!1839735485 &7809730718143848627
Tilemap:
  m_ObjectHideFlags: 0
  m_CorrespondingSourceObject: {fileID: 0}
  m_PrefabInstance: {fileID: 0}
  m_PrefabAsset: {fileID: 0}
  m_GameObject: {fileID: 6512602668835385635}
  m_Enabled: 1
  m_Tiles:
  - first: {x: -2, y: -6, z: 0}
    second:
      serializedVersion: 2
      m_TileIndex: 52
      m_TileSpriteIndex: 52
      m_TileMatrixIndex: 0
      m_TileColorIndex: 0
      m_TileObjectToInstantiateIndex: 65535
      dummyAlignment: 0
      m_AllTileFlags: 1073741825
  - first: {x: -1, y: -6, z: 0}
    second:
      serializedVersion: 2
      m_TileIndex: 53
      m_TileSpriteIndex: 53
      m_TileMatrixIndex: 0
      m_TileColorIndex: 0
      m_TileObjectToInstantiateIndex: 65535
      dummyAlignment: 0
      m_AllTileFlags: 1073741825
  - first: {x: 1, y: -6, z: 0}
    second:
      serializedVersion: 2
      m_TileIndex: 54
      m_TileSpriteIndex: 54
      m_TileMatrixIndex: 0
      m_TileColorIndex: 0
      m_TileObjectToInstantiateIndex: 65535
      dummyAlignment: 0
      m_AllTileFlags: 1073741825
  - first: {x: 2, y: -6, z: 0}
    second:
      serializedVersion: 2
      m_TileIndex: 55
      m_TileSpriteIndex: 55
      m_TileMatrixIndex: 0
      m_TileColorIndex: 0
      m_TileObjectToInstantiateIndex: 65535
      dummyAlignment: 0
      m_AllTileFlags: 1073741825
  - first: {x: 3, y: -6, z: 0}
    second:
      serializedVersion: 2
      m_TileIndex: 56
      m_TileSpriteIndex: 56
      m_TileMatrixIndex: 0
      m_TileColorIndex: 0
      m_TileObjectToInstantiateIndex: 65535
      dummyAlignment: 0
      m_AllTileFlags: 1073741825
  - first: {x: 4, y: -6, z: 0}
    second:
      serializedVersion: 2
      m_TileIndex: 57
      m_TileSpriteIndex: 57
      m_TileMatrixIndex: 0
      m_TileColorIndex: 0
      m_TileObjectToInstantiateIndex: 65535
      dummyAlignment: 0
      m_AllTileFlags: 1073741825
  - first: {x: 5, y: -6, z: 0}
    second:
      serializedVersion: 2
      m_TileIndex: 58
      m_TileSpriteIndex: 58
      m_TileMatrixIndex: 0
      m_TileColorIndex: 0
      m_TileObjectToInstantiateIndex: 65535
      dummyAlignment: 0
      m_AllTileFlags: 1073741825
  - first: {x: -2, y: -5, z: 0}
    second:
      serializedVersion: 2
      m_TileIndex: 45
      m_TileSpriteIndex: 45
      m_TileMatrixIndex: 0
      m_TileColorIndex: 0
      m_TileObjectToInstantiateIndex: 65535
      dummyAlignment: 0
      m_AllTileFlags: 1073741825
  - first: {x: -1, y: -5, z: 0}
    second:
      serializedVersion: 2
      m_TileIndex: 46
      m_TileSpriteIndex: 46
      m_TileMatrixIndex: 0
      m_TileColorIndex: 0
      m_TileObjectToInstantiateIndex: 65535
      dummyAlignment: 0
      m_AllTileFlags: 1073741825
  - first: {x: 1, y: -5, z: 0}
    second:
      serializedVersion: 2
      m_TileIndex: 47
      m_TileSpriteIndex: 47
      m_TileMatrixIndex: 0
      m_TileColorIndex: 0
      m_TileObjectToInstantiateIndex: 65535
      dummyAlignment: 0
      m_AllTileFlags: 1073741825
  - first: {x: 2, y: -5, z: 0}
    second:
      serializedVersion: 2
      m_TileIndex: 48
      m_TileSpriteIndex: 48
      m_TileMatrixIndex: 0
      m_TileColorIndex: 0
      m_TileObjectToInstantiateIndex: 65535
      dummyAlignment: 0
      m_AllTileFlags: 1073741825
  - first: {x: 3, y: -5, z: 0}
    second:
      serializedVersion: 2
      m_TileIndex: 49
      m_TileSpriteIndex: 49
      m_TileMatrixIndex: 0
      m_TileColorIndex: 0
      m_TileObjectToInstantiateIndex: 65535
      dummyAlignment: 0
      m_AllTileFlags: 1073741825
  - first: {x: 4, y: -5, z: 0}
    second:
      serializedVersion: 2
      m_TileIndex: 50
      m_TileSpriteIndex: 50
      m_TileMatrixIndex: 0
      m_TileColorIndex: 0
      m_TileObjectToInstantiateIndex: 65535
      dummyAlignment: 0
      m_AllTileFlags: 1073741825
  - first: {x: 5, y: -5, z: 0}
    second:
      serializedVersion: 2
      m_TileIndex: 51
      m_TileSpriteIndex: 51
      m_TileMatrixIndex: 0
      m_TileColorIndex: 0
      m_TileObjectToInstantiateIndex: 65535
      dummyAlignment: 0
      m_AllTileFlags: 1073741825
  - first: {x: -2, y: -4, z: 0}
    second:
      serializedVersion: 2
      m_TileIndex: 38
      m_TileSpriteIndex: 38
      m_TileMatrixIndex: 0
      m_TileColorIndex: 0
      m_TileObjectToInstantiateIndex: 65535
      dummyAlignment: 0
      m_AllTileFlags: 1073741825
  - first: {x: -1, y: -4, z: 0}
    second:
      serializedVersion: 2
      m_TileIndex: 39
      m_TileSpriteIndex: 39
      m_TileMatrixIndex: 0
      m_TileColorIndex: 0
      m_TileObjectToInstantiateIndex: 65535
      dummyAlignment: 0
      m_AllTileFlags: 1073741825
  - first: {x: 0, y: -4, z: 0}
    second:
      serializedVersion: 2
      m_TileIndex: 40
      m_TileSpriteIndex: 40
      m_TileMatrixIndex: 0
      m_TileColorIndex: 0
      m_TileObjectToInstantiateIndex: 65535
      dummyAlignment: 0
      m_AllTileFlags: 1073741825
  - first: {x: 1, y: -4, z: 0}
    second:
      serializedVersion: 2
      m_TileIndex: 41
      m_TileSpriteIndex: 41
      m_TileMatrixIndex: 0
      m_TileColorIndex: 0
      m_TileObjectToInstantiateIndex: 65535
      dummyAlignment: 0
      m_AllTileFlags: 1073741825
  - first: {x: 2, y: -4, z: 0}
    second:
      serializedVersion: 2
      m_TileIndex: 42
      m_TileSpriteIndex: 42
      m_TileMatrixIndex: 0
      m_TileColorIndex: 0
      m_TileObjectToInstantiateIndex: 65535
      dummyAlignment: 0
      m_AllTileFlags: 1073741825
  - first: {x: 3, y: -4, z: 0}
    second:
      serializedVersion: 2
      m_TileIndex: 43
      m_TileSpriteIndex: 43
      m_TileMatrixIndex: 0
      m_TileColorIndex: 0
      m_TileObjectToInstantiateIndex: 65535
      dummyAlignment: 0
      m_AllTileFlags: 1073741825
  - first: {x: 5, y: -4, z: 0}
    second:
      serializedVersion: 2
      m_TileIndex: 44
      m_TileSpriteIndex: 44
      m_TileMatrixIndex: 0
      m_TileColorIndex: 0
      m_TileObjectToInstantiateIndex: 65535
      dummyAlignment: 0
      m_AllTileFlags: 1073741825
  - first: {x: -2, y: -3, z: 0}
    second:
      serializedVersion: 2
      m_TileIndex: 31
      m_TileSpriteIndex: 31
      m_TileMatrixIndex: 0
      m_TileColorIndex: 0
      m_TileObjectToInstantiateIndex: 65535
      dummyAlignment: 0
      m_AllTileFlags: 1073741825
  - first: {x: -1, y: -3, z: 0}
    second:
      serializedVersion: 2
      m_TileIndex: 32
      m_TileSpriteIndex: 32
      m_TileMatrixIndex: 0
      m_TileColorIndex: 0
      m_TileObjectToInstantiateIndex: 65535
      dummyAlignment: 0
      m_AllTileFlags: 1073741825
  - first: {x: 0, y: -3, z: 0}
    second:
      serializedVersion: 2
      m_TileIndex: 33
      m_TileSpriteIndex: 33
      m_TileMatrixIndex: 0
      m_TileColorIndex: 0
      m_TileObjectToInstantiateIndex: 65535
      dummyAlignment: 0
      m_AllTileFlags: 1073741825
  - first: {x: 1, y: -3, z: 0}
    second:
      serializedVersion: 2
      m_TileIndex: 34
      m_TileSpriteIndex: 34
      m_TileMatrixIndex: 0
      m_TileColorIndex: 0
      m_TileObjectToInstantiateIndex: 65535
      dummyAlignment: 0
      m_AllTileFlags: 1073741825
  - first: {x: 2, y: -3, z: 0}
    second:
      serializedVersion: 2
      m_TileIndex: 35
      m_TileSpriteIndex: 35
      m_TileMatrixIndex: 0
      m_TileColorIndex: 0
      m_TileObjectToInstantiateIndex: 65535
      dummyAlignment: 0
      m_AllTileFlags: 1073741825
  - first: {x: 3, y: -3, z: 0}
    second:
      serializedVersion: 2
      m_TileIndex: 36
      m_TileSpriteIndex: 36
      m_TileMatrixIndex: 0
      m_TileColorIndex: 0
      m_TileObjectToInstantiateIndex: 65535
      dummyAlignment: 0
      m_AllTileFlags: 1073741825
  - first: {x: 5, y: -3, z: 0}
    second:
      serializedVersion: 2
      m_TileIndex: 37
      m_TileSpriteIndex: 37
      m_TileMatrixIndex: 0
      m_TileColorIndex: 0
      m_TileObjectToInstantiateIndex: 65535
      dummyAlignment: 0
      m_AllTileFlags: 1073741825
  - first: {x: -2, y: -2, z: 0}
    second:
      serializedVersion: 2
      m_TileIndex: 23
      m_TileSpriteIndex: 23
      m_TileMatrixIndex: 0
      m_TileColorIndex: 0
      m_TileObjectToInstantiateIndex: 65535
      dummyAlignment: 0
      m_AllTileFlags: 1073741825
  - first: {x: -1, y: -2, z: 0}
    second:
      serializedVersion: 2
      m_TileIndex: 24
      m_TileSpriteIndex: 24
      m_TileMatrixIndex: 0
      m_TileColorIndex: 0
      m_TileObjectToInstantiateIndex: 65535
      dummyAlignment: 0
      m_AllTileFlags: 1073741825
  - first: {x: 0, y: -2, z: 0}
    second:
      serializedVersion: 2
      m_TileIndex: 25
      m_TileSpriteIndex: 25
      m_TileMatrixIndex: 0
      m_TileColorIndex: 0
      m_TileObjectToInstantiateIndex: 65535
      dummyAlignment: 0
      m_AllTileFlags: 1073741825
  - first: {x: 1, y: -2, z: 0}
    second:
      serializedVersion: 2
      m_TileIndex: 26
      m_TileSpriteIndex: 26
      m_TileMatrixIndex: 0
      m_TileColorIndex: 0
      m_TileObjectToInstantiateIndex: 65535
      dummyAlignment: 0
      m_AllTileFlags: 1073741825
  - first: {x: 2, y: -2, z: 0}
    second:
      serializedVersion: 2
      m_TileIndex: 27
      m_TileSpriteIndex: 27
      m_TileMatrixIndex: 0
      m_TileColorIndex: 0
      m_TileObjectToInstantiateIndex: 65535
      dummyAlignment: 0
      m_AllTileFlags: 1073741825
  - first: {x: 3, y: -2, z: 0}
    second:
      serializedVersion: 2
      m_TileIndex: 28
      m_TileSpriteIndex: 28
      m_TileMatrixIndex: 0
      m_TileColorIndex: 0
      m_TileObjectToInstantiateIndex: 65535
      dummyAlignment: 0
      m_AllTileFlags: 1073741825
  - first: {x: 4, y: -2, z: 0}
    second:
      serializedVersion: 2
      m_TileIndex: 29
      m_TileSpriteIndex: 29
      m_TileMatrixIndex: 0
      m_TileColorIndex: 0
      m_TileObjectToInstantiateIndex: 65535
      dummyAlignment: 0
      m_AllTileFlags: 1073741825
  - first: {x: 5, y: -2, z: 0}
    second:
      serializedVersion: 2
      m_TileIndex: 30
      m_TileSpriteIndex: 30
      m_TileMatrixIndex: 0
      m_TileColorIndex: 0
      m_TileObjectToInstantiateIndex: 65535
      dummyAlignment: 0
      m_AllTileFlags: 1073741825
  - first: {x: -2, y: -1, z: 0}
    second:
      serializedVersion: 2
      m_TileIndex: 15
      m_TileSpriteIndex: 15
      m_TileMatrixIndex: 0
      m_TileColorIndex: 0
      m_TileObjectToInstantiateIndex: 65535
      dummyAlignment: 0
      m_AllTileFlags: 1073741825
  - first: {x: -1, y: -1, z: 0}
    second:
      serializedVersion: 2
      m_TileIndex: 16
      m_TileSpriteIndex: 16
      m_TileMatrixIndex: 0
      m_TileColorIndex: 0
      m_TileObjectToInstantiateIndex: 65535
      dummyAlignment: 0
      m_AllTileFlags: 1073741825
  - first: {x: 0, y: -1, z: 0}
    second:
      serializedVersion: 2
      m_TileIndex: 17
      m_TileSpriteIndex: 17
      m_TileMatrixIndex: 0
      m_TileColorIndex: 0
      m_TileObjectToInstantiateIndex: 65535
      dummyAlignment: 0
      m_AllTileFlags: 1073741825
  - first: {x: 1, y: -1, z: 0}
    second:
      serializedVersion: 2
      m_TileIndex: 18
      m_TileSpriteIndex: 18
      m_TileMatrixIndex: 0
      m_TileColorIndex: 0
      m_TileObjectToInstantiateIndex: 65535
      dummyAlignment: 0
      m_AllTileFlags: 1073741825
  - first: {x: 2, y: -1, z: 0}
    second:
      serializedVersion: 2
      m_TileIndex: 19
      m_TileSpriteIndex: 19
      m_TileMatrixIndex: 0
      m_TileColorIndex: 0
      m_TileObjectToInstantiateIndex: 65535
      dummyAlignment: 0
      m_AllTileFlags: 1073741825
  - first: {x: 3, y: -1, z: 0}
    second:
      serializedVersion: 2
      m_TileIndex: 20
      m_TileSpriteIndex: 20
      m_TileMatrixIndex: 0
      m_TileColorIndex: 0
      m_TileObjectToInstantiateIndex: 65535
      dummyAlignment: 0
      m_AllTileFlags: 1073741825
  - first: {x: 4, y: -1, z: 0}
    second:
      serializedVersion: 2
      m_TileIndex: 21
      m_TileSpriteIndex: 21
      m_TileMatrixIndex: 0
      m_TileColorIndex: 0
      m_TileObjectToInstantiateIndex: 65535
      dummyAlignment: 0
      m_AllTileFlags: 1073741825
  - first: {x: 5, y: -1, z: 0}
    second:
      serializedVersion: 2
      m_TileIndex: 22
      m_TileSpriteIndex: 22
      m_TileMatrixIndex: 0
      m_TileColorIndex: 0
      m_TileObjectToInstantiateIndex: 65535
      dummyAlignment: 0
      m_AllTileFlags: 1073741825
  - first: {x: -2, y: 0, z: 0}
    second:
      serializedVersion: 2
      m_TileIndex: 8
      m_TileSpriteIndex: 8
      m_TileMatrixIndex: 0
      m_TileColorIndex: 0
      m_TileObjectToInstantiateIndex: 65535
      dummyAlignment: 0
      m_AllTileFlags: 1073741825
  - first: {x: -1, y: 0, z: 0}
    second:
      serializedVersion: 2
      m_TileIndex: 9
      m_TileSpriteIndex: 9
      m_TileMatrixIndex: 0
      m_TileColorIndex: 0
      m_TileObjectToInstantiateIndex: 65535
      dummyAlignment: 0
      m_AllTileFlags: 1073741825
  - first: {x: 0, y: 0, z: 0}
    second:
      serializedVersion: 2
      m_TileIndex: 10
      m_TileSpriteIndex: 10
      m_TileMatrixIndex: 0
      m_TileColorIndex: 0
      m_TileObjectToInstantiateIndex: 65535
      dummyAlignment: 0
      m_AllTileFlags: 1073741825
  - first: {x: 2, y: 0, z: 0}
    second:
      serializedVersion: 2
      m_TileIndex: 11
      m_TileSpriteIndex: 11
      m_TileMatrixIndex: 0
      m_TileColorIndex: 0
      m_TileObjectToInstantiateIndex: 65535
      dummyAlignment: 0
      m_AllTileFlags: 1073741825
  - first: {x: 3, y: 0, z: 0}
    second:
      serializedVersion: 2
      m_TileIndex: 12
      m_TileSpriteIndex: 12
      m_TileMatrixIndex: 0
      m_TileColorIndex: 0
      m_TileObjectToInstantiateIndex: 65535
      dummyAlignment: 0
      m_AllTileFlags: 1073741825
  - first: {x: 4, y: 0, z: 0}
    second:
      serializedVersion: 2
      m_TileIndex: 13
      m_TileSpriteIndex: 13
      m_TileMatrixIndex: 0
      m_TileColorIndex: 0
      m_TileObjectToInstantiateIndex: 65535
      dummyAlignment: 0
      m_AllTileFlags: 1073741825
  - first: {x: 5, y: 0, z: 0}
    second:
      serializedVersion: 2
      m_TileIndex: 14
      m_TileSpriteIndex: 14
      m_TileMatrixIndex: 0
      m_TileColorIndex: 0
      m_TileObjectToInstantiateIndex: 65535
      dummyAlignment: 0
      m_AllTileFlags: 1073741825
  - first: {x: -2, y: 1, z: 0}
    second:
      serializedVersion: 2
      m_TileIndex: 0
      m_TileSpriteIndex: 0
      m_TileMatrixIndex: 0
      m_TileColorIndex: 0
      m_TileObjectToInstantiateIndex: 65535
      dummyAlignment: 0
      m_AllTileFlags: 1073741825
  - first: {x: -1, y: 1, z: 0}
    second:
      serializedVersion: 2
      m_TileIndex: 1
      m_TileSpriteIndex: 1
      m_TileMatrixIndex: 0
      m_TileColorIndex: 0
      m_TileObjectToInstantiateIndex: 65535
      dummyAlignment: 0
      m_AllTileFlags: 1073741825
  - first: {x: 0, y: 1, z: 0}
    second:
      serializedVersion: 2
      m_TileIndex: 2
      m_TileSpriteIndex: 2
      m_TileMatrixIndex: 0
      m_TileColorIndex: 0
      m_TileObjectToInstantiateIndex: 65535
      dummyAlignment: 0
      m_AllTileFlags: 1073741825
  - first: {x: 1, y: 1, z: 0}
    second:
      serializedVersion: 2
      m_TileIndex: 3
      m_TileSpriteIndex: 3
      m_TileMatrixIndex: 0
      m_TileColorIndex: 0
      m_TileObjectToInstantiateIndex: 65535
      dummyAlignment: 0
      m_AllTileFlags: 1073741825
  - first: {x: 2, y: 1, z: 0}
    second:
      serializedVersion: 2
      m_TileIndex: 4
      m_TileSpriteIndex: 4
      m_TileMatrixIndex: 0
      m_TileColorIndex: 0
      m_TileObjectToInstantiateIndex: 65535
      dummyAlignment: 0
      m_AllTileFlags: 1073741825
  - first: {x: 3, y: 1, z: 0}
    second:
      serializedVersion: 2
      m_TileIndex: 5
      m_TileSpriteIndex: 5
      m_TileMatrixIndex: 0
      m_TileColorIndex: 0
      m_TileObjectToInstantiateIndex: 65535
      dummyAlignment: 0
      m_AllTileFlags: 1073741825
  - first: {x: 4, y: 1, z: 0}
    second:
      serializedVersion: 2
      m_TileIndex: 6
      m_TileSpriteIndex: 6
      m_TileMatrixIndex: 0
      m_TileColorIndex: 0
      m_TileObjectToInstantiateIndex: 65535
      dummyAlignment: 0
      m_AllTileFlags: 1073741825
  - first: {x: 5, y: 1, z: 0}
    second:
      serializedVersion: 2
      m_TileIndex: 7
      m_TileSpriteIndex: 7
      m_TileMatrixIndex: 0
      m_TileColorIndex: 0
      m_TileObjectToInstantiateIndex: 65535
      dummyAlignment: 0
      m_AllTileFlags: 1073741825
  m_AnimatedTiles: {}
  m_TileAssetArray:
  - m_RefCount: 1
    m_Data: {fileID: 11400000, guid: 8549046a8a12c4e44b643806f6980c5e, type: 2}
  - m_RefCount: 1
    m_Data: {fileID: 11400000, guid: a7e91ef677f3e4c499ed6e0b0537ac99, type: 2}
  - m_RefCount: 1
    m_Data: {fileID: 11400000, guid: 3068b4d513e8f1145ba971ad9594b067, type: 2}
  - m_RefCount: 1
    m_Data: {fileID: 11400000, guid: 0aa2659e7bcbb6e48a764533353d29b3, type: 2}
  - m_RefCount: 1
    m_Data: {fileID: 11400000, guid: 5b171c7b6bd2f4346a2c823d585a10c8, type: 2}
  - m_RefCount: 1
    m_Data: {fileID: 11400000, guid: 2c37ba9344eed3f45849def944a0ecd1, type: 2}
  - m_RefCount: 1
    m_Data: {fileID: 11400000, guid: 853e6b1a0a8f5e040833d30d141b20ab, type: 2}
  - m_RefCount: 1
    m_Data: {fileID: 11400000, guid: 147496ddadfb7cd4998ecedbdd39b8e5, type: 2}
  - m_RefCount: 1
    m_Data: {fileID: 11400000, guid: 7098f0965f219ae43a4fe2061fb40377, type: 2}
  - m_RefCount: 1
    m_Data: {fileID: 11400000, guid: c7e4c61b098d8e747863397f66693495, type: 2}
  - m_RefCount: 1
    m_Data: {fileID: 11400000, guid: 69006203bc14b8b47bda3062c2bc7736, type: 2}
  - m_RefCount: 1
    m_Data: {fileID: 11400000, guid: 0e06fb78cb7d1814d882a4e018841eed, type: 2}
  - m_RefCount: 1
    m_Data: {fileID: 11400000, guid: 2d17a87eef9ca9342a5312a3f7ad1562, type: 2}
  - m_RefCount: 1
    m_Data: {fileID: 11400000, guid: 03ba86766b9703b4ea233efc6ce16396, type: 2}
  - m_RefCount: 1
    m_Data: {fileID: 11400000, guid: 1821f4d97d1def848a06a1b9575b5c24, type: 2}
  - m_RefCount: 1
    m_Data: {fileID: 11400000, guid: 0dc3b4de076da9c4f9300ff1a2fed8d1, type: 2}
  - m_RefCount: 1
    m_Data: {fileID: 11400000, guid: 40e68095b56db044588c567bc090a65b, type: 2}
  - m_RefCount: 1
    m_Data: {fileID: 11400000, guid: 93b76899215b20247985f9947b569970, type: 2}
  - m_RefCount: 1
    m_Data: {fileID: 11400000, guid: ee6ffc60d2ac91841a97f88b4aa0e597, type: 2}
  - m_RefCount: 1
    m_Data: {fileID: 11400000, guid: 0bd530d3af69c5044ada4f321fc0004a, type: 2}
  - m_RefCount: 1
    m_Data: {fileID: 11400000, guid: 6ab1cffb919f961438921b4c236ce1f5, type: 2}
  - m_RefCount: 1
    m_Data: {fileID: 11400000, guid: 38692ff001cd9e946885aedf09a087b4, type: 2}
  - m_RefCount: 1
    m_Data: {fileID: 11400000, guid: 789088c6ceb238c4eb832cf57c9dc39c, type: 2}
  - m_RefCount: 1
    m_Data: {fileID: 11400000, guid: e99433bf5c9d33a44b9e0b5dd6299970, type: 2}
  - m_RefCount: 1
    m_Data: {fileID: 11400000, guid: 61d9fbaf2b332e04a8ff934a8f0f8916, type: 2}
  - m_RefCount: 1
    m_Data: {fileID: 11400000, guid: f875b7312a960804099d500a38fe2703, type: 2}
  - m_RefCount: 1
    m_Data: {fileID: 11400000, guid: 1d5eabe04c8177b4cac08092e978a88f, type: 2}
  - m_RefCount: 1
    m_Data: {fileID: 11400000, guid: 3a20a83385a4efb4886069b7c36cdcaf, type: 2}
  - m_RefCount: 1
    m_Data: {fileID: 11400000, guid: 4e29795570402cf4abf18f238e9d7ea5, type: 2}
  - m_RefCount: 1
    m_Data: {fileID: 11400000, guid: 96870ed7445ea9542af9f5517209dfd2, type: 2}
  - m_RefCount: 1
    m_Data: {fileID: 11400000, guid: 0c55b96998297b74d8bfae85bd4f7dff, type: 2}
  - m_RefCount: 1
    m_Data: {fileID: 11400000, guid: 218e7a305ae6a2945a9f9dbb1c901b33, type: 2}
  - m_RefCount: 1
    m_Data: {fileID: 11400000, guid: 1d492108c6048e74e939a6df6c6afba1, type: 2}
  - m_RefCount: 1
    m_Data: {fileID: 11400000, guid: 95aada818cf290244ad6db968345b542, type: 2}
  - m_RefCount: 1
    m_Data: {fileID: 11400000, guid: aab9cc959d7dfdc4097b6072dad11ce8, type: 2}
  - m_RefCount: 1
    m_Data: {fileID: 11400000, guid: 33390498a1871344cbbd8f1db1e5b2a5, type: 2}
  - m_RefCount: 1
    m_Data: {fileID: 11400000, guid: 64fc2bc3e8f253440b126e890cb4e64a, type: 2}
  - m_RefCount: 1
    m_Data: {fileID: 11400000, guid: f5662349522bc7a489cbe49062b06d6a, type: 2}
  - m_RefCount: 1
    m_Data: {fileID: 11400000, guid: 79ed5423ec4c9364ab7a76cddb56e69f, type: 2}
  - m_RefCount: 1
    m_Data: {fileID: 11400000, guid: 0a65b56597bc9bb4aae830e4f83cc134, type: 2}
  - m_RefCount: 1
    m_Data: {fileID: 11400000, guid: 7dc476ec9eb156740b48d4e993be207c, type: 2}
  - m_RefCount: 1
    m_Data: {fileID: 11400000, guid: 560728377b372e340b738e595cd78864, type: 2}
  - m_RefCount: 1
    m_Data: {fileID: 11400000, guid: e91a7bde92f98fa4ba4d67fd80f08c48, type: 2}
  - m_RefCount: 1
    m_Data: {fileID: 11400000, guid: 7fb8897785fac5246ab8434f5ca1ba92, type: 2}
  - m_RefCount: 1
    m_Data: {fileID: 11400000, guid: a409e3a7ae50ef942ab48cd9c8089ad2, type: 2}
  - m_RefCount: 1
    m_Data: {fileID: 11400000, guid: d52124b5673a23946a49ba4d09d7c615, type: 2}
  - m_RefCount: 1
    m_Data: {fileID: 11400000, guid: c8918bf71dde9ca40b921703656c4238, type: 2}
  - m_RefCount: 1
    m_Data: {fileID: 11400000, guid: 38d7181f69cf5124a83503d00675424d, type: 2}
  - m_RefCount: 1
    m_Data: {fileID: 11400000, guid: 586accd6bb8550b428e6b740ca941b06, type: 2}
  - m_RefCount: 1
    m_Data: {fileID: 11400000, guid: 59734b0ce24e4e945bacd83ad14dc063, type: 2}
  - m_RefCount: 1
    m_Data: {fileID: 11400000, guid: dccaea1e19e73a94aad9e578af4cd6c6, type: 2}
  - m_RefCount: 1
    m_Data: {fileID: 11400000, guid: 50b936d61f57de94d88e21452c91a8d1, type: 2}
  - m_RefCount: 1
    m_Data: {fileID: 11400000, guid: 02dcc66804bf0424ea40c126b2be051e, type: 2}
  - m_RefCount: 1
    m_Data: {fileID: 11400000, guid: 8510ffdef7a7a6846b28d3be789fddaa, type: 2}
  - m_RefCount: 1
    m_Data: {fileID: 11400000, guid: ca5af5f0a1d4ff54ca49ef15c862b266, type: 2}
  - m_RefCount: 1
    m_Data: {fileID: 11400000, guid: 258a74d9c42a76a47ba73ddc16005a46, type: 2}
  - m_RefCount: 1
    m_Data: {fileID: 11400000, guid: 2d52a844072d9524ab25870c9f4653cf, type: 2}
  - m_RefCount: 1
    m_Data: {fileID: 11400000, guid: fc43131fff589934095a37013f89b2e1, type: 2}
  - m_RefCount: 1
    m_Data: {fileID: 11400000, guid: 6403d1abf725e9141a459b2924b40935, type: 2}
  m_TileSpriteArray:
  - m_RefCount: 1
    m_Data: {fileID: 1408983653, guid: 83af4c0dcd9f45e0b1bae337e1573b01, type: 3}
  - m_RefCount: 1
    m_Data: {fileID: 1295636074, guid: 83af4c0dcd9f45e0b1bae337e1573b01, type: 3}
  - m_RefCount: 1
    m_Data: {fileID: -515407229, guid: 83af4c0dcd9f45e0b1bae337e1573b01, type: 3}
  - m_RefCount: 1
    m_Data: {fileID: -914690540, guid: 83af4c0dcd9f45e0b1bae337e1573b01, type: 3}
  - m_RefCount: 1
    m_Data: {fileID: -1798180823, guid: 83af4c0dcd9f45e0b1bae337e1573b01, type: 3}
  - m_RefCount: 1
    m_Data: {fileID: -482195893, guid: 83af4c0dcd9f45e0b1bae337e1573b01, type: 3}
  - m_RefCount: 1
    m_Data: {fileID: 809488387, guid: 83af4c0dcd9f45e0b1bae337e1573b01, type: 3}
  - m_RefCount: 1
    m_Data: {fileID: 1136716180, guid: 83af4c0dcd9f45e0b1bae337e1573b01, type: 3}
  - m_RefCount: 1
    m_Data: {fileID: 529967335, guid: 83af4c0dcd9f45e0b1bae337e1573b01, type: 3}
  - m_RefCount: 1
    m_Data: {fileID: -1179426939, guid: 83af4c0dcd9f45e0b1bae337e1573b01, type: 3}
  - m_RefCount: 1
    m_Data: {fileID: -1943309581, guid: 83af4c0dcd9f45e0b1bae337e1573b01, type: 3}
  - m_RefCount: 1
    m_Data: {fileID: -1709758038, guid: 83af4c0dcd9f45e0b1bae337e1573b01, type: 3}
  - m_RefCount: 1
    m_Data: {fileID: 1073303988, guid: 83af4c0dcd9f45e0b1bae337e1573b01, type: 3}
  - m_RefCount: 1
    m_Data: {fileID: -1378423274, guid: 83af4c0dcd9f45e0b1bae337e1573b01, type: 3}
  - m_RefCount: 1
    m_Data: {fileID: -624850626, guid: 83af4c0dcd9f45e0b1bae337e1573b01, type: 3}
  - m_RefCount: 1
    m_Data: {fileID: 762688542, guid: 83af4c0dcd9f45e0b1bae337e1573b01, type: 3}
  - m_RefCount: 1
    m_Data: {fileID: -664733395, guid: 83af4c0dcd9f45e0b1bae337e1573b01, type: 3}
  - m_RefCount: 1
    m_Data: {fileID: -1684053763, guid: 83af4c0dcd9f45e0b1bae337e1573b01, type: 3}
  - m_RefCount: 1
    m_Data: {fileID: 2046511002, guid: 83af4c0dcd9f45e0b1bae337e1573b01, type: 3}
  - m_RefCount: 1
    m_Data: {fileID: -78603151, guid: 83af4c0dcd9f45e0b1bae337e1573b01, type: 3}
  - m_RefCount: 1
    m_Data: {fileID: 1557380818, guid: 83af4c0dcd9f45e0b1bae337e1573b01, type: 3}
  - m_RefCount: 1
    m_Data: {fileID: -1651813059, guid: 83af4c0dcd9f45e0b1bae337e1573b01, type: 3}
  - m_RefCount: 1
    m_Data: {fileID: 372790206, guid: 83af4c0dcd9f45e0b1bae337e1573b01, type: 3}
  - m_RefCount: 1
    m_Data: {fileID: 1101611418, guid: 83af4c0dcd9f45e0b1bae337e1573b01, type: 3}
  - m_RefCount: 1
    m_Data: {fileID: -1634939532, guid: 83af4c0dcd9f45e0b1bae337e1573b01, type: 3}
  - m_RefCount: 1
    m_Data: {fileID: 1568646867, guid: 83af4c0dcd9f45e0b1bae337e1573b01, type: 3}
  - m_RefCount: 1
    m_Data: {fileID: -419010537, guid: 83af4c0dcd9f45e0b1bae337e1573b01, type: 3}
  - m_RefCount: 1
    m_Data: {fileID: -1243261053, guid: 83af4c0dcd9f45e0b1bae337e1573b01, type: 3}
  - m_RefCount: 1
    m_Data: {fileID: -1887886114, guid: 83af4c0dcd9f45e0b1bae337e1573b01, type: 3}
  - m_RefCount: 1
    m_Data: {fileID: 2096008975, guid: 83af4c0dcd9f45e0b1bae337e1573b01, type: 3}
  - m_RefCount: 1
    m_Data: {fileID: 1181631703, guid: 83af4c0dcd9f45e0b1bae337e1573b01, type: 3}
  - m_RefCount: 1
    m_Data: {fileID: -1152865342, guid: 83af4c0dcd9f45e0b1bae337e1573b01, type: 3}
  - m_RefCount: 1
    m_Data: {fileID: -1887048935, guid: 83af4c0dcd9f45e0b1bae337e1573b01, type: 3}
  - m_RefCount: 1
    m_Data: {fileID: 1420049059, guid: 83af4c0dcd9f45e0b1bae337e1573b01, type: 3}
  - m_RefCount: 1
    m_Data: {fileID: 1570534266, guid: 83af4c0dcd9f45e0b1bae337e1573b01, type: 3}
  - m_RefCount: 1
    m_Data: {fileID: 520889436, guid: 83af4c0dcd9f45e0b1bae337e1573b01, type: 3}
  - m_RefCount: 1
    m_Data: {fileID: 1140321922, guid: 83af4c0dcd9f45e0b1bae337e1573b01, type: 3}
  - m_RefCount: 1
    m_Data: {fileID: 433197250, guid: 83af4c0dcd9f45e0b1bae337e1573b01, type: 3}
  - m_RefCount: 1
    m_Data: {fileID: 1379030018, guid: 83af4c0dcd9f45e0b1bae337e1573b01, type: 3}
  - m_RefCount: 1
    m_Data: {fileID: 1494620423, guid: 83af4c0dcd9f45e0b1bae337e1573b01, type: 3}
  - m_RefCount: 1
    m_Data: {fileID: -701552763, guid: 83af4c0dcd9f45e0b1bae337e1573b01, type: 3}
  - m_RefCount: 1
    m_Data: {fileID: 428475719, guid: 83af4c0dcd9f45e0b1bae337e1573b01, type: 3}
  - m_RefCount: 1
    m_Data: {fileID: -2069326210, guid: 83af4c0dcd9f45e0b1bae337e1573b01, type: 3}
  - m_RefCount: 1
    m_Data: {fileID: -4842385, guid: 83af4c0dcd9f45e0b1bae337e1573b01, type: 3}
  - m_RefCount: 1
    m_Data: {fileID: -1972853786, guid: 83af4c0dcd9f45e0b1bae337e1573b01, type: 3}
  - m_RefCount: 1
    m_Data: {fileID: 915024994, guid: 83af4c0dcd9f45e0b1bae337e1573b01, type: 3}
  - m_RefCount: 1
    m_Data: {fileID: 1879921561, guid: 83af4c0dcd9f45e0b1bae337e1573b01, type: 3}
  - m_RefCount: 1
    m_Data: {fileID: -328965999, guid: 83af4c0dcd9f45e0b1bae337e1573b01, type: 3}
  - m_RefCount: 1
    m_Data: {fileID: 982615377, guid: 83af4c0dcd9f45e0b1bae337e1573b01, type: 3}
  - m_RefCount: 1
    m_Data: {fileID: 891824749, guid: 83af4c0dcd9f45e0b1bae337e1573b01, type: 3}
  - m_RefCount: 1
    m_Data: {fileID: -2042654096, guid: 83af4c0dcd9f45e0b1bae337e1573b01, type: 3}
  - m_RefCount: 1
    m_Data: {fileID: -1540937291, guid: 83af4c0dcd9f45e0b1bae337e1573b01, type: 3}
  - m_RefCount: 1
    m_Data: {fileID: -1642013312, guid: 83af4c0dcd9f45e0b1bae337e1573b01, type: 3}
  - m_RefCount: 1
    m_Data: {fileID: 915428171, guid: 83af4c0dcd9f45e0b1bae337e1573b01, type: 3}
  - m_RefCount: 1
    m_Data: {fileID: -1630385955, guid: 83af4c0dcd9f45e0b1bae337e1573b01, type: 3}
  - m_RefCount: 1
    m_Data: {fileID: -1650475135, guid: 83af4c0dcd9f45e0b1bae337e1573b01, type: 3}
  - m_RefCount: 1
    m_Data: {fileID: -872213051, guid: 83af4c0dcd9f45e0b1bae337e1573b01, type: 3}
  - m_RefCount: 1
    m_Data: {fileID: 1092236039, guid: 83af4c0dcd9f45e0b1bae337e1573b01, type: 3}
  - m_RefCount: 1
    m_Data: {fileID: -1663933865, guid: 83af4c0dcd9f45e0b1bae337e1573b01, type: 3}
  m_TileMatrixArray:
  - m_RefCount: 59
    m_Data:
      e00: 1
      e01: 0
      e02: 0
      e03: 0
      e10: 0
      e11: 1
      e12: 0
      e13: 0
      e20: 0
      e21: 0
      e22: 1
      e23: 0
      e30: 0
      e31: 0
      e32: 0
      e33: 1
  m_TileColorArray:
  - m_RefCount: 59
    m_Data: {r: 1, g: 1, b: 1, a: 1}
  m_TileObjectToInstantiateArray: []
  m_AnimationFrameRate: 1
  m_Color: {r: 1, g: 1, b: 1, a: 1}
  m_Origin: {x: -2, y: -6, z: 0}
  m_Size: {x: 8, y: 8, z: 1}
  m_TileAnchor: {x: 0.5, y: 0.5, z: 0}
  m_TileOrientation: 0
  m_TileOrientationMatrix:
    e00: 1
    e01: 0
    e02: 0
    e03: 0
    e10: 0
    e11: 1
    e12: 0
    e13: 0
    e20: 0
    e21: 0
    e22: 1
    e23: 0
    e30: 0
    e31: 0
    e32: 0
    e33: 1
--- !u!483693784 &4376834232036447939
TilemapRenderer:
  m_ObjectHideFlags: 0
  m_CorrespondingSourceObject: {fileID: 0}
  m_PrefabInstance: {fileID: 0}
  m_PrefabAsset: {fileID: 0}
  m_GameObject: {fileID: 6512602668835385635}
  m_Enabled: 1
  m_CastShadows: 0
  m_ReceiveShadows: 0
  m_DynamicOccludee: 0
  m_StaticShadowCaster: 0
  m_MotionVectors: 1
  m_LightProbeUsage: 0
  m_ReflectionProbeUsage: 0
  m_RayTracingMode: 0
  m_RayTraceProcedural: 0
  m_RenderingLayerMask: 1
  m_RendererPriority: 0
  m_Materials:
  - {fileID: 10754, guid: 0000000000000000f000000000000000, type: 0}
  m_StaticBatchInfo:
    firstSubMesh: 0
    subMeshCount: 0
  m_StaticBatchRoot: {fileID: 0}
  m_ProbeAnchor: {fileID: 0}
  m_LightProbeVolumeOverride: {fileID: 0}
  m_ScaleInLightmap: 1
  m_ReceiveGI: 1
  m_PreserveUVs: 0
  m_IgnoreNormalsForChartDetection: 0
  m_ImportantGI: 0
  m_StitchLightmapSeams: 1
  m_SelectedEditorRenderState: 0
  m_MinimumChartSize: 4
  m_AutoUVMaxDistance: 0.5
  m_AutoUVMaxAngle: 89
  m_LightmapParameters: {fileID: 0}
  m_SortingLayerID: 0
  m_SortingLayer: 0
  m_SortingOrder: 0
  m_ChunkSize: {x: 32, y: 32, z: 32}
  m_ChunkCullingBounds: {x: 0, y: 0, z: 0}
  m_MaxChunkCount: 16
  m_MaxFrameAge: 16
  m_SortOrder: 0
  m_Mode: 0
  m_DetectChunkCullingBounds: 0
  m_MaskInteraction: 0
--- !u!114 &3975479077784695730
MonoBehaviour:
  m_ObjectHideFlags: 0
  m_CorrespondingSourceObject: {fileID: 0}
  m_PrefabInstance: {fileID: 0}
  m_PrefabAsset: {fileID: 0}
  m_GameObject: {fileID: 0}
  m_Enabled: 1
  m_EditorHideFlags: 0
  m_Script: {fileID: 12395, guid: 0000000000000000e000000000000000, type: 0}
  m_Name: Palette Settings
  m_EditorClassIdentifier: 
  cellSizing: 0
  m_TransparencySortMode: 0
  m_TransparencySortAxis: {x: 0, y: 0, z: 1}
